
cave_goblin_column_5 = {
	slot = 5
	generic = yes
	ai = yes
	potential = {
		primary_culture = cave_goblin
		NOT = {
			tag = H74
			#tag = H75
			tag = I98
			tag = I99
		}
	}
	has_country_shield = no

	g_absorbing_the_disorganized_nezkaru = {
		icon = mission_captured
		position = 1
		required_missions = {

		}
		trigger = {
			num_of_colonists = 1
			if = {
				limit = {
					ai = yes
				}
				AND = {
					ai = yes
					is_year = 1446
				}
			}
			else = {
				OR = {
					adm_tech = 3
					any_owned_province = {
						NOT = { is_core = FROM }
					}
					AND = {
						adm_power = 100
						treasury = 100
					}
				}
			}
		}
		
		effect = {
			if = {
				limit = {
					ai = yes
				}
				add_treasury = 60
				add_country_modifier = {
					name = cave_goblin_absorption
					duration = 18250
				}
			}
			else_if = {
				limit = {
					OR = {
						adm_tech = 3
						any_owned_province = {
							NOT = { is_core = FROM }
						}
					}
				}
				add_country_modifier = {
					name = cave_goblin_absorption
					duration = 18250
				}
			}
			else_if = {
				limit = {
					adm_power = 100
					treasury = 100
				}
				add_adm_power = -100
				add_treasury = -100
				add_country_modifier = {
					name = cave_goblin_absorption
					duration = 18250
				}
			}
		}
	}
	g_integrating_new_nezkaru = {
		icon = mission_market
		position = 1
		required_missions = {
			g_absorbing_the_disorganized_nezkaru
		}
		trigger = {
			grown_by_development = 6
			dip_power = 150
		}
		
		effect = {
			add_dip_power = -150
			add_country_modifier = {
				name = cave_goblin_expansionism
				duration = 18250
			}
		}
	}
	g_collecting_new_tithes = {
		icon = mission_entrepot_of_india
		position = 1
		required_missions = {
			g_integrating_new_nezkaru
		}
		trigger = {
			grown_by_development = 9
		}
		
		effect = {
			#add_treasury = 60
			add_country_modifier = {
				name = cave_goblin_new_tithes
				duration = 5475
			}
		}
	}


    cave_goblin_riches_of_the_dwarovar = {
		icon = reform_the_monte
		position = 4
		required_missions = {

		}
		trigger = {
			any_owned_province = {
               		 AND = {
                    	OR = {
                      		trade_goods = mithril
                    		trade_goods = gold
                   		}
                  	  	base_production = 5
					}
            }
		}
		
		effect = {
			add_years_of_income = 1
		}
	}
    cave_goblin_drunk_on_conquest = {
		icon = mission_feast
		position = 5
		required_missions = {
		
		}
		trigger = {
			wine = 5
		}
		
		effect = {
			add_country_modifier = {
                name = cave_goblin_wine
                duration = 7300
            }
		}
	}
    cave_goblin_fungus_among_us = {
		icon = mission_delighted_mage
		position = 6
		required_missions = {
		
		}
		trigger = {
			if = {
				limit = {
					tag = H75
				}
				fungi = 5
			}
			else = { fungi = 3 }
		}
		
		effect = {
			#add manpower and a goods modifier to 3 random provinces
			random_owned_province = {
				limit = {
					trade_goods = fungi
					NOT = { has_province_modifier = cave_goblin_fungus_prov }
				}
                add_base_manpower = 1
                add_province_modifier = {
                    name = cave_goblin_fungus_prov
                    duration = 7300
                }
			}
			
			random_owned_province = {
				limit = {
					trade_goods = fungi
					NOT = { has_province_modifier = cave_goblin_fungus_prov }
				}
                add_base_manpower = 1
                add_permanent_province_modifier = {
                    name = cave_goblin_fungus_prov
                    duration = 7300
                }
			}
			
			random_owned_province = {
				limit = {
					trade_goods = fungi
					NOT = { has_province_modifier = cave_goblin_fungus_prov }
				}
                add_base_manpower = 1
                add_permanent_province_modifier = {
                    name = cave_goblin_fungus_prov
                    duration = 7300
                }
            }
		}
	}
	cave_goblin_weapons_for_the_warband = {
		icon = mission_armoury
		position = 7
		required_missions = {
		
		}
		trigger = {
			if = {
				limit = {
					OR = {
						tag = H75
						tag = H74
					}
				}
				any_owned_province = {
					trade_goods = iron
					base_production = 5
				}
			}
			else = { 
				any_owned_province = {
					trade_goods = iron
					base_production = 3
				}
			}
		}
		
		effect = {
			add_country_modifier = {
                name = cave_goblin_weapons
                duration = 7300
            }
		}
	}
	cave_goblin_strength_in_numbers = {
		icon = mission_upper_burma_campaign
		position = 8
		required_missions = {
		
		}
		trigger = {
			OR = {
				land_forcelimit = 40
				num_of_allies = 1
			}
		}
		
		effect = {
			add_country_modifier = {
                name = cave_goblin_numbers
                duration = 7300
            }
		}
	}
}

cave_goblin_warband_column_1 = {
	slot = 1
	generic = yes
	ai = yes
	potential = {
		primary_culture = cave_goblin
		NOT = {
			tag = H74
			#tag = H75
			tag = I98
			tag = I99
		}
	}
	has_country_shield = yes

    cave_goblin_seeking_loot = {
		icon = mission_spoils_of_war
		position = 1
		required_missions = {

		}
		trigger = {
			is_at_war = yes
		}
		
		effect = {
			add_country_modifier = {
				name = cave_goblin_looting
				duration = 7300
			}
			hidden_effect = {
				if = {
					limit = {
						ai = yes
					}
					add_treasury = 100
					random_known_country = { #make the AI actually take provinces
						limit = {
							war_with = FROM
							NOT = { num_of_cities = 4 }
						}
						every_owned_province = {
							add_permanent_claim = FROM
						}
					}
				}
			}
		}
	}

	cave_goblin_knives_in_the_dark = {
		icon = mission_assassination
		position = 1
		required_missions = {
			cave_goblin_seeking_loot
		}
		trigger = {
			#checking if we conquered stuff. There must be a better way to check this
			any_owned_province = {
				NOT = { is_core = FROM }
			}
		}
		
		effect = {
			add_country_modifier = {
				name = cave_goblin_victory
				duration = 9125
			}
		}
	}

	cave_goblin_expanding_our_influence = {
		icon = mission_fortify_rajputana
		position = 1
		required_missions = {
			cave_goblin_knives_in_the_dark
		}
		trigger = {
			num_of_cities = 8
		}
		
		effect = {
			add_years_of_income = 0.5
			add_country_modifier = {
				name = cave_goblin_expanding_influence
				duration = 7300
			}
		}
	}

	cave_goblin_conquerors_on_the_rise = {
		icon = mission_fortify_rajputana
		position = 1
		required_missions = {
			cave_goblin_expanding_our_influence
		}
		trigger = {
			num_of_cities = 15
		}
		
		effect = {
			add_country_modifier = {
				name = cave_goblin_conquerors
				duration = 9125
			}
		}
	}

	cave_goblin_ravagers_of_the_dwarovar = {
		icon = mission_fortify_rajputana
		position = 1
		required_missions = {
			cave_goblin_conquerors_on_the_rise
		}
		trigger = {
			num_of_cities = 50
		}
		
		effect = {
			add_country_modifier = {
				name = cave_goblin_ravagers
				duration = 9125
			}
		}
	}

	cave_goblin_conquerors_of_the_dwarovar = {
		icon = mission_fortify_rajputana
		position = 1
		required_missions = {
			cave_goblin_ravagers_of_the_dwarovar
		}
		trigger = {
			num_of_cities = 100
		}
		
		effect = {
			add_prestige = 100
			add_adm_power = 200
			add_dip_power = 200
			add_mil_power = 200
		}
	}
}

cave_goblin_warband_column_2 = {
	slot = 2
	generic = yes
	ai = yes
	potential = {
		primary_culture = cave_goblin
		NOT = {
			tag = H74
			#tag = H75
			tag = I98
			tag = I99
		}
	}
	has_country_shield = yes

    g_plunder_the_enemy_fortress = {
		icon = mission_fortify_rajputana
		position = 3
		required_missions = {
			cave_goblin_knives_in_the_dark
			g_our_hold
		}
		trigger = {
			any_owned_province = {
                AND = {
					OR = {
						has_terrain = dwarven_hold
						has_terrain = dwarven_hold_surface
					}
					OR = {
						culture_group = dwarven
						culture_group = orcish
					}
					NOT = {
						province_id = 4128
						province_id = 4149
						province_id = 4122
					}
                }
            }
		}
		
		effect = {
			capital_scope = {
				add_base_manpower = 1
				add_base_production = 1
				add_base_tax = 1
			}
		}
	}

	g_looted_secrets = {
		icon = mission_fortify_rajputana
		position = 1
		required_missions = {
			g_plunder_the_enemy_fortress
		}
		trigger = {
			calc_true_if = {
				all_owned_province = {
            	    OR = {
						has_terrain = dwarven_hold
						has_terrain = dwarven_hold_surface
					}
					NOT = {
						province_id = 4128
						province_id = 4149
						province_id = 4122
					}
				}
				amount = 4
			}
		}
		
		effect = {
			if = {
				limit = {
					is_lacking_institutions = yes
				}
				capital_scope = {
					add_next_institution_embracement = 25
				}
			}
			else_if = {
				limit = {
					NOT = { has_dlc = "Rule Britannia" }
				}
				add_adm_power = 50
			}
			else = {
				change_innovativeness = 10
			}
		}
	}

	g_loot_plunder = {
		icon = mission_fortify_rajputana
		position = 1
		required_missions = {
			g_looted_secrets
		}
		trigger = {
			calc_true_if = {
				all_owned_province = {
            	    OR = {
						has_terrain = dwarven_hold
						has_terrain = dwarven_hold_surface
					}
					NOT = {
						province_id = 4128
						province_id = 4149
						province_id = 4122
					}
				}
				amount = 6
			}
		}
		
		effect = {
			add_treasury = 1000

			custom_tooltip = this_will_loot_all_our_noncap_holds_tooltip
			hidden_effect = {
				every_owned_province = {
					limit = {
						OR = {
							has_terrain = dwarven_hold
							has_terrain = dwarven_hold_surface
						}
						NOT = {
							is_capital = yes
						}
					}
					add_devastation = 100
				}
			}
		}
	}

	g_a_throne_of_loot = {
		icon = mission_fortify_rajputana
		position = 1
		required_missions = {
			g_loot_plunder
		}
		trigger = {
			calc_true_if = {
				all_owned_province = {
            	    OR = {
						has_terrain = dwarven_hold
						has_terrain = dwarven_hold_surface
					}
					NOT = {
						province_id = 4128
						province_id = 4149
						province_id = 4122
					}
				}
				amount = 10
			}
		}
		
		effect = {
			custom_tooltip = this_will_loot_all_our_noncap_holds_tooltip_2
			hidden_effect = {
				every_owned_province = {
					limit = {
						OR = {
							has_terrain = dwarven_hold
							has_terrain = dwarven_hold_surface
						}
						NOT = {
							is_capital = yes
						}
					}
					add_devastation = 25
					random_list = {
						33 = {
							add_scaled_local_adm_power = 5
							add_base_tax = -1
						}
						33 = {
							add_scaled_local_dip_power = 5
							add_base_production = -1
						}
						33 = {
							add_scaled_local_mil_power = 5
							add_base_manpower = -1
						}
					}
				}
			}

		}
	}
}

cave_goblin_warband_column_3 = {
	slot = 3
	generic = yes
	ai = yes
	potential = {
		primary_culture = cave_goblin
		NOT = {
			tag = H74
			#tag = H75
			tag = I98
			tag = I99
		}
	}
	has_country_shield = yes

    g_conquest_of_a_hold = {
		icon = mission_fortify_rajputana
		position = 1
		required_missions = {

		}
		trigger = {
			any_core_province = {
                OR = {
					has_terrain = dwarven_hold
					has_terrain = dwarven_hold_surface
				}
			}
		}
		
		effect = {
			add_adm_power = 100
			hidden_effect = {
				if = {
					limit = {
						ai = yes
					}
					add_treasury = 150 #help keep them from bankrupting themselves by repairing holds
				}
			}
		}
	}

	g_our_hold = {
		icon = mission_fortify_rajputana
		position = 1
		required_missions = {
			g_conquest_of_a_hold
		}
		trigger = {
			any_owned_province = {
				OR = {
					has_terrain = dwarven_hold
					has_terrain = dwarven_hold_surface
				}
				is_core = FROM
				NOT = {
					has_province_modifier = ruined_hold
					has_province_modifier = partially_ruined_hold
					has_province_modifier = damaged_hold
					has_province_modifier = infested_hold
				}
			}
		}
		
		effect = {
			add_years_of_income = 0.25
			add_adm_power = 50
			if = {
				limit = {
					capital_scope = {
						OR = {
							NOT = {
								OR = {
									has_terrain = dwarven_hold
									has_terrain = dwarven_hold_surface
								}
							}
							NOT = { religion = goblinic_shamanism }
							NOT = { culture = cave_goblin }
						}
					}
				}
				random_owned_province = {
					limit = {
						OR = {
							has_terrain = dwarven_hold
							has_terrain = dwarven_hold_surface
						}
						is_core = FROM
						NOT = {
							has_province_modifier = ruined_hold
							has_province_modifier = partially_ruined_hold
							has_province_modifier = damaged_hold
						}
					} 
					owner = { 
						set_capital = PREV
					}
					change_culture = cave_goblin
					change_religion = goblinic_shamanism
				}
			}
		}
	}

	g_a_vault_for_our_plunder = {
		icon = mission_fortify_rajputana
		position = 1
		required_missions = {
			g_our_hold
		}
		trigger = {
			treasury = 1000
			NOT = {
				num_of_loans = 1
			}
			#NOT = {
			#	has_estate_loans = 1 #pdox lied
			#}
		}
		
		effect = {
			capital_scope = {
				add_base_tax = 1
				add_base_production = 1
				add_base_tax = 1
				add_province_modifier = {
					name = cave_goblin_booming_capital
					duration = 7300
				}
			}
		}
	}

	g_centralizing_the_clan = {
		icon = mission_fortify_rajputana
		position = 1
		required_missions = {
			g_a_vault_for_our_plunder
		}
		trigger = {
			total_development = 120
			OR = {
				has_reform = martial_society_reform
				has_reform = civil_society_reform
			}
		}
		
		effect = {
			add_country_modifier = {
				name = cave_goblin_reforming
				duration = 1825
			}
			add_government_reform = dwarovar_squatter
		}
	}

	g_settling_down = {
		icon = mission_fortify_rajputana
		position = 1
		required_missions = {
			g_centralizing_the_clan
		}
		trigger = {
			capital_scope = {
				development = 50
			}
			OR = {
				has_reform = religious_societies_reform
				has_reform = lip_service_reform
				government = dictatorship
				government = monarchy
				government = republic
				government = theocracy
			}
		}
		
		effect = {
			change_government_reform_progress = 100
		}
	}
}

g_cave_goblin_allclan_civil_war_column_5 = {
	slot = 5
	generic = no
	ai = yes
	potential = {
		NOT = {
			tag = I98
		}
		primary_culture = cave_goblin
		has_global_flag = allclan_civil_war
	}
	has_country_shield = yes

    g_the_opportunity = {
		icon = mission_fortify_rajputana
		position = 1
		required_missions = {

		}
		trigger = {
			has_global_flag = allclan_civil_war
		}
		
		effect = {
			create_general = {
				tradition = 100
				#add_siege = -1
			}
			if = {
				limit = {
					tag = H82
				}
				override_country_name = BLOKROKLAN # Treasure Clan
			}
			else_if = {
				limit = {
					tag = H90
				}
				override_country_name = PAUZKLAN # Treasure Clan
			}
			else_if = {
				limit = {
					tag = H89
				}
				override_country_name = SLOZKLAN # Treasure Clan
			}
			else_if = {
				limit = {
					OR = {
						tag = I99
						tag = H88
						tag = H92
						tag = H93
					}
				}
				override_country_name = UDZEN_TROICE # Treasure Clan
			}
			else_if = {
				limit = {
					tag = H84
				}
				override_country_name = DIVLKLAN # Treasure Clan
			}
			else_if = {
				limit = {
					tag = H85
				}
				override_country_name = SVETKLAN # Treasure Clan
			}
			else_if = {
				limit = {
					tag = H87
				}
				override_country_name = USMAKLAN # Treasure Clan
			}
			swap_free_idea_group = yes
		}
	}
	g_together_for_victory = {
		icon = mission_fortify_rajputana
		position = 1
		required_missions = {

		}
		trigger = {
			NOT = {
				manpower_percentage = 0.5
			}
		}
		effect = {
			add_yearly_manpower = 5 #25%
		}
	}
	g_waking_the_goblin = {
		icon = mission_fortify_rajputana
		position = 1
		required_missions = {

		}
		trigger = {
			war_exhaustion = 5
		}
		effect = {
			add_war_exhaustion = -5
		}
	}
	g_dishonor_before_death = {
		icon = mission_fortify_rajputana
		position = 1
		required_missions = {

		}
		trigger = {
			NOT = {
				war_score = -74
			}
		}
		effect = {
			add_country_modifier = {
				name = allclan_endsieg
				duration = 3650
			}
		}
	}
}