# 
dameria_1 = {
	slot = 1
	generic = no
	ai = yes
	has_country_shield = yes
	
	potential = {
		tag = A58
	}
	
	A58_the_pride_of_varilor = {
		icon = mission_fleet
		position = 2
		
		required_missions = {
			A58_secure_the_damesear
		}
		
		trigger = {
			if = {
				limit = { ai = no }
				navy_size_percentage = 1
			}
			else = { navy_size_percentage = 0.5 }
		}
		effect = {
			custom_tooltip = dameria_varilor_tooltip
			add_country_modifier = {
				name = dameria_pride_of_varilor_afloat
				duration = -1
			}
		}
	}
	
	A58_anbenncost_trade_hegemony = {
		icon = mission_rb_scottish_north_sea_trade
		position = 3
		
		required_missions = {
			A58_the_pride_of_varilor
		}
		
		trigger = {
			8 = {
				trade_share = {
					country = ROOT
					share = 50
				}
			}
		}
		effect = {
			add_country_modifier = {
				name = dameria_anbenncost_trade
				duration = 10950
			}
		}
	}
	
	A58_dameshead_trade_hegemony = {
		icon = mission_rb_scottish_conquer_london
		position = 4
		
		required_missions = {
			A58_anbenncost_trade_hegemony
		}
		
		trigger = {
			1252 = {
				trade_share = {
					country = ROOT
					share = 50
				}
			}
		}
		effect = {
			add_country_modifier = {
				name = dameria_dameshead_trade
				duration = 10950
			}
		}
	}
	
	A58_subjugate_moon_heaven = {
		icon = mission_humiliate_provence
		position = 5
		
		required_missions = {
			A58_the_religious_war
		}
		
		trigger = {
			OR = {
				AND = {
					exists = A31
					dip = 5
				}
				AND = {
					NOT = { exists = A31 }
					owns = 52
				}
			}
		}
		effect = {
			if = {
				limit = { exists = A31 }
				add_dip_power = -100
				A31 = { country_event = { id = dameria.1 days = 30 random = 15 } }
			}
			else = {
				52 = {
					add_base_manpower = 2
					add_base_tax = 2
					add_base_production = 2
				}
			}
		}
	}
	
	A58_subjugate_magisterium = {
		icon = mission_industria_sedera
		position = 6
		
		required_missions = {
			A58_electors_support
		}
		
		trigger = {
			OR = {
				AND = {
					exists = A85
					dip = 6
				}
				AND = {
					NOT = { exists = A85 }
					owns = 524
				}
			}
		}
		effect = {
			if = {
				limit = { exists = A85 }
				add_dip_power = -150
				A85 = { country_event = { id = dameria.1 days = 30 random = 15 } }
			}
			else = {
				524 = {
					add_base_manpower = 2
					add_base_tax = 2
					add_base_production = 2
				}
			}
		}
	}
}

dameria_2 = {
	slot = 2
	generic = no
	ai = yes
	has_country_shield = yes
	
	potential = {
		tag = A58
	}
	
	A58_secure_the_damesear = {
		icon = mission_unite_home_region
		position = 1
		
		provinces_to_highlight = {
			OR = {
				province_id = 2
				province_id = 3
				province_id = 4
				province_id = 5
				province_id = 6
				province_id = 8
				province_id = 168
			}
		}
		
		trigger = {
			owns = 2
			owns = 3
			owns = 4
			owns = 5
			owns = 6
			owns = 8
			owns = 168
		}
		effect = {
			2 = {
				add_permanent_province_modifier = {
					name = dameria_damesear_secured
					duration = 36500
				}
			}
			168 = {
				add_permanent_province_modifier = {
					name = dameria_damesear_secured
					duration = 36500
				}
			}
			if = {
				limit = { 
					ai = yes 
					NOT = { 8 = { development = 60 } }
				}
				8 = {
					add_base_manpower = 3
					add_base_tax = 3
					add_base_production = 3
				}
			}
		}
	}
	
	A58_the_grand_ballroom = {
		icon = mission_rb_renovate_oxbridge
		position = 2
		
		required_missions = {
			A58_secure_the_damesear
		}
		
		provinces_to_highlight = {
				province_id = 8
		}
		
		trigger = {
			capital_scope = {
				province_id = 8
				development = 60
			}
			dip_power = 150
		}
		effect = {
			add_dip_power = -150
			#This will be givin via Event
			8 = {
				add_permanent_province_modifier = {
					name = dameria_grand_ballroom
					duration = -1
				}
			}
			wexhills_area  = {
				limit = {
					NOT = { is_core = ROOT }
					NOT = { is_permanent_claim = ROOT }
				}
				add_permanent_claim = ROOT
			}
		}
	}
	
	A58_empowered_parliament = {
		icon = mission_rb_the_education_acts
		position = 3
		
		required_missions = {
			A58_the_grand_ballroom
		}
		
		trigger = {
			current_size_of_parliament = 15
		}
		effect = {
			add_country_modifier = {
				name = damerian_parliament
				duration = 36500
			}
		}
	}
	
	A58_the_religious_war = {
		icon = mission_rb_control_state_religion
		position = 4
		
		required_missions = {
			A58_empowered_parliament
		}
		
		trigger = {
			OR = {
				OR = {
					AND = {
						is_league_leader = yes
						religion = corinite
						hre_religion_treaty = no
					}
					AND = {
						is_league_leader = yes
						religion = regent_court
						hre_religion_treaty = no
						is_in_war = {
							casus_belli = cb_religious_league
						}
					}
				}
				AND = {
					hre_religion_treaty = yes
					has_global_flag = evangelical_union_happened
				}
				hre_religion_locked = yes
			}
		}
		effect = {
			country_event = { id = dameria.4 }
		}
	}
	
	A58_electors_support = {
		icon = mission_asian_trader
		position = 5
		
		required_missions = {
			A58_the_religious_war
		}
		
		trigger = {
			calc_true_if = {
				all_elector = {
					preferred_emperor = ROOT
				}
				amount = 2
			}
		}
		effect = {
			add_dip_power = 100
			add_country_modifier = {
				name = dameria_ambitions
				duration = 18250
			}
		}
	}
	
	A58_moon_upon_a_dove_throne = {
		icon = mission_moon_throne
		position = 7
		
		required_missions = {
			A58_electors_support
		}
		
		trigger = {
			is_emperor = yes
		}
		effect = {
			add_country_modifier = {
				name = moon_upon_a_dove_throne
				duration = -1
			}
		}
	}
}

dameria_3 = {
	slot = 3
	generic = no
	ai = yes
	has_country_shield = yes
	
	potential = {
		tag = A58
	}
	
	A58_revenge_upon_wex = {
		icon = mission_cannons_firing
		position = 3
		
		required_missions = {
			A58_the_grand_ballroom
		}
		
		provinces_to_highlight = {
			area = wexhills_area
		}
		
		trigger = {
			wexhills_area = {	
				type = all
				
				country_or_vassal_holds = ROOT
			}
		}
		
		effect = {
			add_prestige = 20
			add_country_modifier = {
				name = dameria_avenged
				duration = 7300
			}
		}
	}
	
	A58_the_question_of_pearlsedge = {
		icon = mission_kowtow
		position = 5
		
		required_missions = {
			A58_dameria_reforged
		}
		
		provinces_to_highlight = {
			OR = {
				area = pearlywine_area
				area = damespearl_area
			}
			
			NOT = { country_or_vassal_holds = ROOT }
		}
		
		trigger = {
			OR = {
				AND = {
					exists = A11
					prestige = A11
					dip_power = 150
				}
				AND = {
					NOT = {	exists = A11 }
					pearlywine_area = {	
						type = all
						
						country_or_vassal_holds = ROOT
					}
					damespearl_area = {	
						type = all
						
						country_or_vassal_holds = ROOT
					}
				}
			}
			
		}
		
		effect = {
			if = {
				limit = { exists = A11 }
				add_dip_power = -150
				A11 = { country_event = { id = dameria.1 days = 60 random = 30 } }
			}
			else = {
				add_prestige = 30
			}
		}
	}
	
	A58_the_crown_of_deranne = {
		icon = mission_empire
		position = 6
		
		required_missions = {
			A58_prepare_damerian_army
		}
		
		trigger = {
			OR = {
				AND = {
					exists = A02
					prestige = A02
					dip = A02
					mil = A02
					adm = A02
					dip_power = 150
				}
				AND = {
					NOT = { exists = A02 }
				}
			}
		}
		
		effect = {
			if = {
				limit = { exists = A02 }
				add_dip_power = -150
				add_casus_belli = {
					target = A02
					type = cb_restore_personal_union
					months = 600
				}
			}
			else = {
				every_province = {
					limit = { 
						is_core = A02
						NOT = { is_core = ROOT }
					}
					add_permanent_claim = ROOT
				}
			}
		}
	}
}

dameria_4 = {
	slot = 4
	generic = no
	ai = yes
	has_country_shield = yes
	
	potential = {
		tag = A58
	}
	
	A58_grow_house_of_silmuna = {
		icon = mission_monarch_in_throne_room
		position = 1
		
		trigger = {
			stability = 3
			legitimacy = 100
		}
		
		effect = {
			add_prestige = 20
			add_country_modifier = {
				name = dameria_house_of_silmuna
				duration = 14600
			}
		}
	}
	
	A58_prepare_diplomatic_corps = {
		icon = mission_establish_jesuit_missions
		position = 2
		
		required_missions = {
			A58_grow_house_of_silmuna
		}
		
		trigger = {
			dip = 4
			dip_power = 100
		}
		
		effect = {
			add_prestige = 5
			add_dip_power = -100
			add_country_modifier = {
				name = dameria_diplomatic_corps
				duration = 36500
			}
		}
	}
	
	A58_lord_of_west_dameria = {
		icon = mission_intervene_in_castile
		position = 3
		
		required_missions = {
			A58_prepare_diplomatic_corps
		}
		
		trigger = {
			if = {
				limit = {
					any_known_country = {
						OR = {
							primary_culture = west_damerian
							primary_culture = exwesser
						}
						capital_scope = {
							superregion = western_cannor_superregion
						}
						NOT = { num_of_subjects = 1 }
						is_subject = no
					}
				}
				dip_power = 150
				adm_power = 150
			}
			else = {
				always = yes
			}
		}
		
		effect = {
			if = {
				limit = {
					any_known_country = {
						OR = {
							primary_culture = west_damerian
							primary_culture = exwesser
						}
						capital_scope = {
							superregion = western_cannor_superregion
						}
						NOT = { num_of_subjects = 1 }
						is_subject = no
					}
				}
				add_dip_power = -150
				add_adm_power = -150
				every_country = {
					limit = {
						OR = {
							primary_culture = west_damerian
							primary_culture = exwesser
						}
						capital_scope = {
							superregion = western_cannor_superregion
						}
						NOT = { num_of_subjects = 1 }
						is_subject = no
					}
					country_event = { id = dameria.1 days = 60 random = 30 }
				}
			}
			else = {
				add_legitimacy = 5
			}
		}
	}
	
	A58_dameria_reforged = {
		icon = mission_mosque
		position = 4
		
		required_missions = {
			A58_lord_of_west_dameria
			A58_lord_of_east_dameria
		}
		
		provinces_to_highlight = {
			OR = {
				area = wesdam_area
				area = exwes_area
				area = carneteria_area
				area = windtower_area
				area = woodwell_area
				area = neckcliffe_area
				
				area = damerian_dales_area
				area = heartlands_area
				area = the_commons_area
			}
			
			NOT = { country_or_vassal_holds = ROOT }
		}
		
		trigger = {
			wesdam_area = {	
				type = all
				
				country_or_vassal_holds = ROOT
			}
			exwes_area = {	
				type = all
				
				country_or_vassal_holds = ROOT
			}
			carneteria_area = {	
				type = all
				
				country_or_vassal_holds = ROOT
			}
			windtower_area = {	
				type = all
				
				country_or_vassal_holds = ROOT
			}
			woodwell_area = {	
				type = all
				
				country_or_vassal_holds = ROOT
			}
			neckcliffe_area = {	
				type = all
				
				country_or_vassal_holds = ROOT
			}
			damerian_dales_area = {	
				type = all
				
				country_or_vassal_holds = ROOT
			}
			heartlands_area = {	
				type = all
				
				country_or_vassal_holds = ROOT
			}
			the_commons_area = {	
				type = all
				
				country_or_vassal_holds = ROOT
			}
		}
		
		effect = {
			add_stability_or_adm_power = yes
			add_prestige = 50
			add_dip_power = 300
			add_country_modifier = {
				name = dameria_reforged
				duration = 36500
			}
		}
	}
	
	A58_prepare_damerian_army = {
		icon = mission_assemble_an_army
		position = 5
		
		required_missions = {
			A58_dameria_reforged
		}
		
		trigger = {
			army_size_percentage = 0.85
		}
		
		effect = {
			add_mil_power = 100
			add_country_modifier = {
				name = damerian_army
				duration = 14600
			}
		}
	}
	
	A58_the_crown_of_lorent = {
		icon = mission_empire
		position = 6
		
		required_missions = {
			A58_prepare_damerian_army
		}
		
		trigger = {
			OR = {
				AND = {
					exists = A01
					prestige = A01
					dip = A01
					mil = A01
					adm = A01
					dip_power = 150
				}
				AND = {
					NOT = { exists = A01 }
				}
			}
		}
		
		effect = {
			if = {
				limit = { exists = A01 }
				add_dip_power = -150
				add_casus_belli = {
					target = A01
					type = cb_restore_personal_union
					months = 600
				}
			}
			else = {
				every_province = {
					limit = { 
						is_core = A01
						NOT = { is_core = ROOT }
					}
					add_permanent_claim = ROOT
				}
			}
		}
	}
	
	A58_damerian_lencenor = {
		icon = mission_landsknecht_soldier
		position = 6
		
		required_missions = {
			A58_the_crown_of_rubenaire
			A58_the_crown_of_deranne
			A58_the_crown_of_lorent
		}
		
		trigger = {
			stability = 3
			
		}
		
		effect = {
			add_prestige = 15
			lencenor_region  = {
				limit = {
					NOT = { is_core = ROOT }
					NOT = { is_permanent_claim = ROOT }
				}
				add_permanent_claim = ROOT
			}
			add_accepted_culture = high_lorentish
			add_accepted_culture = low_lorentish
			
		}
	}
}

dameria_5 = {
	slot = 5
	generic = no
	ai = yes
	has_country_shield = yes
	
	potential = {
		tag = A58
	}
	
	A58_lord_of_east_dameria = {
		icon = mission_imperial_spain
		position = 3
		
		required_missions = {
			A58_prepare_diplomatic_corps
		}
		
		trigger = {
			if = {
				limit = {
					any_known_country = {
						OR = {
							primary_culture = east_damerian
						}
						capital_scope = { region = east_dameshead_region }
						NOT = {
							num_of_subjects = 1
							tag = A58
							tag = A61
							tag = Z03
						}
						is_subject = no
					}
				}
				dip_power = 150
				adm_power = 150
			}
			else = {
				always = yes
			}
		}
		
		effect = {
			if = {
				limit = {
					any_known_country = {
						OR = {
							primary_culture = east_damerian
						}
						capital_scope = { region = east_dameshead_region }
						NOT = {
							num_of_subjects = 1
							tag = A58
							tag = A61
							tag = Z03
						}
						is_subject = no
					}
				}
				add_dip_power = -150
				add_adm_power = -150
				every_country = {
					limit = {
						OR = {
							primary_culture = east_damerian
						}
						capital_scope = { region = east_dameshead_region }
						NOT = { 
							num_of_subjects = 1 
							tag = A58
							tag = A61
							tag = Z03
						}
						is_subject = no
					}
					country_event = { id = dameria.1 days = 60 random = 30 }
				}
			}
			else = {
				add_legitimacy = 5
			}
		}
	}
	
	A58_the_question_of_verne = {
		icon = mission_dominate_genoa
		position = 5
		
		required_missions = {
			A58_dameria_reforged
		}
		
		provinces_to_highlight = {
			OR = {
				area = pearlywine_area
				area = damespearl_area
			}
		}
		
		trigger = {
			OR = {
				AND = {
					exists = A33
					prestige = A33
					dip_power = 150
				}
				NOT = {	exists = A33 }
			}
			
		}
		
		effect = {
			if = {
				limit = { exists = A33 }
				add_dip_power = -150
				A33 = { country_event = { id = dameria.1 days = 60 random = 30 } }
			}
			else = {
				every_province = {
					limit = { 
						is_core = A33
						NOT = { is_core = ROOT }
					}
					add_permanent_claim = ROOT
				}
			}
		}
	}
	
	A58_the_crown_of_rubenaire = {
		icon = mission_empire
		position = 6
		
		required_missions = {
			A58_prepare_damerian_army
		}
		
		trigger = {
			OR = {
				AND = {
					exists = A18
					prestige = A18
					dip = A18
					mil = A18
					adm = A18
					dip_power = 150
				}
				AND = {
					NOT = { exists = A18 }
				}
			}
		}
		
		effect = {
			if = {
				limit = { exists = A18 }
				add_dip_power = -150
				add_casus_belli = {
					target = A18
					type = cb_restore_personal_union
					months = 600
				}
			}
			else = {
				every_province = {
					limit = { 
						is_core = A18
						NOT = { is_core = ROOT }
					}
					add_permanent_claim = ROOT
				}
			}
		}
	}
}
	
