
G46_north = {
	slot = 1
	generic = no
	ai = yes
	potential = {
		tag = G46
	}
	has_country_shield = yes
	
	G46_the_uneasy_truce = {
		icon = mission_diplomacy_missive
		required_missions = { }
		position = 2
		
		trigger = {
		    NOT = {
			    truce_with = G47
			}	
        }

        effect = {
            kimanis_area = {
				limit = {
					NOT = { is_core = ROOT }
					NOT = { owned_by = ROOT }
				}
				add_permanent_claim = ROOT
		    }
			oktikheion_area = {
				limit = {
					NOT = { is_core = ROOT }
					NOT = { owned_by = ROOT }
				}
				add_permanent_claim = ROOT
		    }
		}
    }

    G46_defeat_oktikheion = {
		icon = mission_face_off
		required_missions = { G46_the_uneasy_truce }
		position = 3
		
		provinces_to_highlight = {
			OR = {
				area = kimanis_area
				area = oktikheion_area
			}
			NOT = {
				country_or_non_sovereign_subject_holds = ROOT
			}
		}
		
		trigger = {
		    kimanis_area = {
				type = all
				country_or_non_sovereign_subject_holds = ROOT
			}
			oktikheion_area = {
				type = all
				country_or_non_sovereign_subject_holds = ROOT
			}
        }

        effect = { 
            mtelian_area = {
				limit = {
					NOT = { is_core = ROOT }
					NOT = { owned_by = ROOT }
					NOT = { owned_by = G60 }
				}
				add_permanent_claim = ROOT
		    }
			arpedifer_area = {
				limit = {
					NOT = { is_core = ROOT }
					NOT = { owned_by = ROOT }
					NOT = { owned_by = G60 }
				}
				add_permanent_claim = ROOT
		    }
		}
    }
	
	G46_seize_the_northern_coast = {
		icon = mission_destroyed_city
		required_missions = { G46_defeat_oktikheion }
		position = 4
		
		provinces_to_highlight = {
			OR = {
				province_id = 2730
				province_id = 2761
				province_id = 2728
				province_id = 2759
				province_id = 2727
				province_id = 2726
			}
			NOT = {
				country_or_non_sovereign_subject_holds = ROOT
			}
		}
		
		trigger = { 		
		    2730 = { country_or_non_sovereign_subject_holds = ROOT }
			2761 = { country_or_non_sovereign_subject_holds = ROOT }
			2728 = { country_or_non_sovereign_subject_holds = ROOT } 
			2759 = { country_or_non_sovereign_subject_holds = ROOT }
			2727 = { country_or_non_sovereign_subject_holds = ROOT }
			2726 = { country_or_non_sovereign_subject_holds = ROOT }
		}	

        effect = { 
            add_mil_power = 100
			add_prestige = 25
		}
    }
	
	G46_proclaim_alecandi_supremacy = {
		icon = mission_empire
		required_missions = { G46_seize_the_northern_coast
		                      G46_south_coast_domination }
		position = 4
		
		trigger = {
		    prestige = 50
        }

        effect = { 
            alecand_region = {
				limit = {
					NOT = { is_core = ROOT }
					NOT = { is_permanent_claim = ROOT }
				}
				add_permanent_claim = ROOT
			}
			add_country_modifier = {
				name = degakheion_alecandi_supremacy
				duration = -1
			}
		}
    }
}

G46_south = {
	slot = 2
	generic = no
	ai = yes
	potential = {
		tag = G46
	}
	has_country_shield = yes
	
	G46_prepare_for_next_conquests = {
		icon = mission_assemble_an_army
		required_missions = { }
		#position = 1
		
		trigger = {
		    manpower_percentage = 0.75
        }
		
		effect = {
		    2775 = { add_permanent_claim = ROOT }
			2738 = { add_permanent_claim = ROOT }
			2739 = { add_permanent_claim = ROOT }
		}
	}
	
	G46_invade_the_bay = {
		icon = mission_fleet_arrival
		required_missions = { G46_prepare_for_next_conquests }
		position = 2
		
		provinces_to_highlight = {
			OR = {
				province_id = 2775
				province_id = 2738
				province_id = 2739
			}
			NOT = {
				country_or_non_sovereign_subject_holds = ROOT
			}
		}
		
		trigger = {
			2775 = { country_or_non_sovereign_subject_holds = ROOT }
			2738 = { country_or_non_sovereign_subject_holds = ROOT }
			2739 = { country_or_non_sovereign_subject_holds = ROOT }
		}
		
		effect = {
		    2776 = { add_permanent_claim = ROOT }
			2777 = { add_permanent_claim = ROOT }
			2773 = { add_permanent_claim = ROOT }
			2772 = { add_permanent_claim = ROOT }
		}
	}
	
	G46_break_the_fortress = {
		icon = mission_horse_siege
		required_missions = { G46_invade_the_bay }
		position = 3
		
		provinces_to_highlight = {
			OR = {
				province_id = 2777
				province_id = 2776
				province_id = 2773
				province_id = 2772
			}
			NOT = {
				country_or_non_sovereign_subject_holds = ROOT
			}
		}
		
		trigger = {
			2777 = { country_or_non_sovereign_subject_holds = ROOT }
			2776 = { country_or_non_sovereign_subject_holds = ROOT }
			2773 = { country_or_non_sovereign_subject_holds = ROOT }
			2772 = { country_or_non_sovereign_subject_holds = ROOT }
		}
		
		effect = {
		    lokemeion_area = {
				limit = {
					NOT = { is_core = ROOT }
					NOT = { owned_by = ROOT }
				}
				add_permanent_claim = ROOT
		    }
		}
	}
	
	G46_south_coast_domination = {
		icon = mission_heated_battle
		required_missions = { G46_break_the_fortress }
		position = 4
		
		provinces_to_highlight = {
			OR = {
				area = lokemeion_area
			}
			NOT = {
				country_or_non_sovereign_subject_holds = ROOT
			}
		}
		
		trigger = {
		    lokemeion_area = {
				type = all
				country_or_non_sovereign_subject_holds = ROOT
			}
        }

        effect = { 
            add_mil_power = 100
			add_prestige = 25
		}
    }
}

G46_army = {
	slot = 3
	generic = no
	ai = yes
	potential = {
		tag = G46
	}
	has_country_shield = yes
	
	G46_expand_conscription = {
		icon = mission_swear_fealty_knight
		required_missions = { }
		#position = 1
		
		trigger = {
		    barracks = 5
        }
		
		effect = {
		    add_country_modifier = {
				name = degakheion_expanded_conscription
				duration = 7300 #20 years
			}
			every_owned_province = {
			    limit = {
				    area = degakheion_area
				}
				add_base_manpower = 2
			}
		}
	}
	
	G46_mobile_infantry = {
		icon = mission_warrior_gold
		required_missions = { G46_expand_conscription }
		position = 2
		
		trigger = {
		    mil_tech = 8
			mil_power = 50
        }
		
		effect = {
		    add_mil_power = -50
		    add_country_modifier = {
				name = degakheion_mobile_infantry
				duration = 7300 #20 years
			}
		}
	}
	
	G46_the_warrior_kylakas = {
		icon = mission_viking
		required_missions = { G46_mobile_infantry }
		position = 3
		
		trigger = {
		    mil = 5
			temple = 10
			treasury = 200
        }
		
		effect = {
		    add_treasury = -200
		    add_country_modifier = {
				name = degakheion_warrior_kylakas
				duration = -1
			}
		}
	}
	
	G46_kherkan_blacksmiths = {
		icon = mission_smith
		required_missions = { G46_break_the_fortress
                              G46_the_warrior_kylakas	}
		position = 4
		
		provinces_to_highlight = {
			province_id = 2773
		}
		
		trigger = {
			2773 = {
			    owned_by = ROOT
				base_production = 10
				has_courthouse_building_trigger = yes
				OR = {
				    has_building = weapons
					trade_goods = damestear
			    }
            }
		}	
		
		effect = {
		    add_country_modifier = {
				name = degakheion_expert_blacksmiths
				duration = 18250 #50 years
			}
		}
	}
	
	G46_a_professional_army = {
		icon = establish_the_musketeers
		required_missions = { G46_kherkan_blacksmiths }
		position = 5
		
		
		trigger = {	
       		army_size = 50
			army_professionalism = 0.40
            regimental_camp = 10
			has_global_modifier_value = {
		    	which = discipline
			    value = 0.15
		    }
		}	
		
		effect = {
		    add_country_modifier = {
				name = degakheion_professional_army
				duration = -1
			}
		}
	}
}

G46_internal = {
	slot = 4
	generic = no
	ai = yes
	potential = {
		tag = G46
	}
	has_country_shield = yes
	
	G46_the_sheperds_of_degakheion = {
		icon = mission_rb_conquer_wales
		required_missions = { }
		#position = 1
		
		trigger = {
		    num_of_owned_provinces_with = {
		    value = 5
            trade_goods = wool
            base_production = 3			
		    }
        }
		
		effect = {
		    add_country_modifier = {
				name = degakheion_wool_trade
				duration = 7300 #20 years
			}
			2736 = {
				add_base_tax = 3
			}
		}
	}

	G46_the_great_city = {
		icon = despot_stefans_legacy
		required_missions = { G46_the_sheperds_of_degakheion }
		position = 2
		
		provinces_to_highlight = {
			province_id = 2736
		}
		
		trigger = {
		    2736 = {
			    owned_by = ROOT
				development = 30
			}
        }
 	    
		effect = {
		    add_stability_or_adm_power = yes
		    2736 = {
			    add_province_modifier = {
					name = "degakheion_investing_in_capital"
					duration = 7300 #20 years
				}
			}
		}
	}

	G46_devandi_clothing = {
		icon = mission_expand_textile_industry
		required_missions = { G46_the_great_city }
		position = 3
		
		provinces_to_highlight = {
			OR = {
			    province_id = 2674
			    province_id = 2625
			}	
		}
		
		trigger = {
		    2674 = {
				base_production = 6
				has_production_building_trigger = yes
			}
			2625 = {
				base_production = 6
				has_production_building_trigger = yes
			}
        }
 	    
		effect = {
            add_country_modifier = {
				name = "degakheion_invested_in_subjects"
				duration = 7300 #20 years
			}
		}
	}
	
	G46_the_greatest_culture = {
		icon = imperial_ascendancy
		required_missions = { G46_devandi_clothing }
		position = 4
		
		provinces_to_highlight = {
			province_id = 2736
		}
		
		trigger = {
		    2736 = {
				development = 35
				has_tax_building_trigger = yes
				has_production_building_trigger = yes
				has_trade_building_trigger = yes
				owned_by = ROOT
			}
			development_in_provinces = {
			    value = 200
				culture = degabhen
			}	
        }
		
		effect = {
		    2736 = {
			    center_of_trade = 1
			}	
            add_country_modifier = {
				name = "degakheion_the_greatest_culture"
				duration = -1
			}
		}
	}
	
	G46_search_deeper = {
		icon = mission_treasure_room
		required_missions = { G46_the_greatest_culture }
		position = 5
	
	    provinces_to_highlight = {
			province_id = 2736
		}
		
		trigger = {
		    treasury = 1000
		    2736 = {
				development = 40
				has_courthouse_building_trigger = yes
				owned_by = ROOT
			}
	    }
		
		effect = {
		    add_treasury = -1000
			country_event = {
				id = flavor_degakheion.1
				days = 365
			}
		}
	}	
}

G46_subjects = {
	slot = 5
	generic = no
	ai = yes
	potential = {
		tag = G46
	}
	has_country_shield = yes
	
	G46_reassert_control = {
		icon = mission_sweat_fealty
		required_missions = { }
		#position = 1
		
		trigger = {
		    NOT = {
			    G55 = { liberty_desire = 50 }
				G56 = { liberty_desire = 50 }
			}
		}

        effect = {
		    add_country_modifier = {
				name = "degakheion_loyal_subjects"
				duration = 7300 #20 years
			}
		}	
	}
	
	G46_finish_the_job = {
		icon = mission_conquer_romania
		required_missions = { G46_reassert_control }
		position = 2
		
		trigger = {
		    is_neighbor_of = G62
		}

        effect = {
            add_casus_belli = {
                target = G62
                type = cb_vassalize_mission
			}
		}
	}

    G46_encourage_degabhen_culture = {
		icon = imperial_capitals
		required_missions = { G46_finish_the_job }
		position = 3
		
		trigger = {
		    dip_power = 100
		    G62 = {
			    is_subject_of = ROOT
				NOT = { liberty_desire = 50 }
				has_opinion = {
	                who = ROOT
                    value = 200
				}	
            }
	    }
       
		effect = {
		    add_dip_power = -100
			G62 = {
			    override_country_name = TRIEION
				change_primary_culture = degabhen
		    }
			2684 = {
			    change_province_name = "Trieion"
			}	
		}	
	}

	G46_colonial_ventures = {
		icon = mission_brazilian_bandeirantes
		required_missions = { G46_encourage_degabhen_culture }
		position = 4
		
		trigger = {
		    treasury = 500
			dip_power = 50
		    NOT = {
			    G55 = { liberty_desire = 50 }
				G56 = { liberty_desire = 50 }
				G62 = { liberty_desire = 50 }
			}
		}

        effect = {
            add_treasury = -500
            add_dip_power = -50
            add_country_modifier = {
				name = "degakheion_colonial_drive"
				duration = 18250 #50 years
			}
            G55 = {
                add_country_modifier = {
				name = "degakheion_colonial_drive"
				duration = 18250 #50 years
			    }
			}	
            G56 = {
                add_country_modifier = {
				name = "degakheion_colonial_drive"
				duration = 18250 #50 years
			    }
			}	
            G62 = {
                add_country_modifier = {
				name = "degakheion_colonial_drive"
				duration = 18250 #50 years
			    }
			}
		}
	}
	
	G46_the_goliath = {
		icon = mission_conquer_alexandria
		required_missions = { G46_the_greatest_culture }
		position = 5
		
			    provinces_to_highlight = {
			province_id = 2736
		}
		
		trigger = {
		    treasury = 500
			2736 = {
			    owned_by = ROOT
			}	
		}
		
		effect = {
		    add_treasury = -500
		    2736 = {
		        add_permanent_province_modifier = {
					name = degakheion_the_goliath
					duration = -1
				}	
			}
		}
	}
}