
rahen_prabhi = {
	slot = 1
	generic = yes
	ai = yes
	has_country_shield = no
	
	potential = {
		has_reform = prabhi_reform
	}
	
	rahen_become_senapti = {
		icon = mission_non-western_soldiers
		ai = yes
		position = 1
		
		provinces_to_highlight = {
			
		}
		
		trigger = {
			has_reform = senapti_reform
		}
		
		effect = {
			add_country_modifier = {
				name = rahen_new_senapti
				duration = 9125 #25 years
			}
		}
	}
	
	rahen_become_raja_prabhi = {
		icon = mission_gharbianss
		ai = yes
		position = 2
		
		required_missions = {
			rahen_become_senapti
		}
		
		provinces_to_highlight = {
			province_id = 4411
		}
		
		trigger = {
			owns_core_province = 4411
			has_reform = raja_reform
		}
		
		effect = {
			add_country_modifier = {
				name = rahen_new_raja
				duration = 9125 #25 years
			}
		}
	}
}

rahen_senapti = {
	slot = 1
	generic = yes
	ai = yes
	has_country_shield = no
	
	potential = {
		has_reform = senapti_reform
	}
	
	rahen_become_raja_senapti = {
		icon = mission_gharbianss
		ai = yes
		position = 1
		
		provinces_to_highlight = {
			province_id = 4411
		}
		
		trigger = {
			owns_core_province = 4411
			has_reform = raja_reform
		}
		
		effect = {
			add_country_modifier = {
				name = rahen_new_raja
				duration = 9125 #25 years
			}
		}
	}
}

rahen_resources = {
	slot = 5
	generic = yes
	ai = yes
	has_country_shield = no
	
	potential = {
		capital_scope = { superregion = rahen_superregion }
	}
	
	rahen_raheni_fabrics = {
		icon = mission_a_million_rice_fields
		ai = yes
		position = 1
		
		trigger = {
			num_of_owned_provinces_with = {
				value = 8
				trade_goods = cotton
				has_production_building_trigger = yes
			}
		}
		
		effect = {
			random_owned_province = {
				limit = { 
					trade_goods = cotton
					has_production_building_trigger = yes
					NOT = { has_province_modifier = rahen_great_cotton_fields }
					superregion = rahen_superregion
				}
				add_province_modifier = {
					name = rahen_great_cotton_fields
					duration = 18250 #50 years
				}
			}
			random_owned_province = {
				limit = { 
					trade_goods = cotton
					has_production_building_trigger = yes
					NOT = { has_province_modifier = rahen_great_cotton_fields }
					superregion = rahen_superregion
				}
				add_province_modifier = {
					name = rahen_great_cotton_fields
					duration = 18250 #50 years
				}
			}
			random_owned_province = {
				limit = { 
					trade_goods = cotton
					has_production_building_trigger = yes
					NOT = { has_province_modifier = rahen_great_cotton_fields }
					superregion = rahen_superregion
				}
				add_province_modifier = {
					name = rahen_great_cotton_fields
					duration = 18250 #50 years
				}
			}
		}
	}
	
	rahen_indigo_merchants = {
		icon = mission_dominate_persian_gulf
		ai = yes
		position = 2
		
		trigger = {
			num_of_owned_provinces_with = {
				value = 5
				trade_goods = dyes
			}
			OR = {
				1361 = { is_strongest_trade_power = ROOT }
				1350 = { is_strongest_trade_power = ROOT }
			}
		}
		
		effect = {
			add_country_modifier = {
				name = rahen_the_indigo_trade
				duration = 9125 #25 years
			}
		}
	}
}

rahen_high_philosophy = {
	slot = 5
	generic = yes
	ai = yes
	has_country_shield = no
	
	potential = {
		capital_scope = { religion = high_philosophy }
	}
	
	rahen_philosopher_king = {
		icon = mission_monarch_in_throne_room
		ai = yes
		position = 3
		
		trigger = {
			anb_has_religious_scholars_trigger = yes
			philosopher = 2
			OR = {
				adm = 5
				dip = 5
				mil = 5
			}
		}
		
		effect = {
			add_ruler_modifier = {
				name = rahen_a_philosopher_king
				duration = -1
			}
		}
	}
}
