
shrakk_one = {
	slot = 2
	generic = no
	ai = yes
	potential = {
		OR = {
			tag = J32
			tag = J48
		}
	}
	has_country_shield = yes
	
	shrakk_settle_the_swamp = {
		icon = mission_rb_conquer_wales
		required_missions = { }
		position = 1
		
		provinces_to_highlight = { region = serpents_vale_region }
		
		trigger = {
			num_of_provinces_owned_or_owned_by_non_sovereign_subjects_with = {
				value = 3
				region = serpents_vale_region
			}
		}
		
		effect = {
			add_country_modifier = {
				name = settling_swamp
				duration = 9125
			}
		}
	}
	
	shrakk_mossmouth_architecture = {
		icon = mission_potosi_silver
		required_missions = { shrakk_settle_the_swamp }
		position = 2
		
		trigger = {
			employed_advisor = {
				type = fortification_expert
			}
		}
		
		effect = {
			custom_tooltip = swamphomes
			every_province = {
				limit = {
					region = serpents_vale_region
					NOT = {
						OR = {
							province_id = 4121
							province_id = 4120
						}
					}
				}
				add_province_triggered_modifier = swamp_stilts_1
			}
		}
	}
	
	shrakk_ogre_valley = {
		icon = mission_wine_monopolies
		required_missions = { shrakk_mossmouth_architecture }
		position = 3
		
		provinces_to_highlight = { region = serpents_vale_region }
		
		trigger = {
			serpents_vale_region = {
				type = all
				owned_by = ROOT
				is_core = ROOT
			}
		}
		
		effect = {
			add_prestige = 15
			every_owned_province = {
				limit = { region = serpents_vale_region }
				add_province_modifier = {
					name = ogre_valley
					duration = 9125
				}
			}
		}
	}
	
	shrakk_mosswall = {
		icon = mission_portuguese_malabar
		required_missions = { shrakk_ogre_valley }
		position = 4
		
		provinces_to_highlight = { province_id = 4166 }
		
		trigger = {
			owns_core_province = 4166
			4166 = { 
				has_fort_building_trigger = yes
			}
		}
		
		effect = {
			4166 = {
				add_permanent_province_modifier = {
					name = mosswall
					duration = -1
				}
				add_base_tax = 2
				add_base_production = 2
				add_base_manpower = 2
			}
			4145 = {
				add_permanent_province_modifier = {
					name = mosswall
					duration = -1
				}
			}
		}
	}
	
	shrakk_shrakkfort = {
		icon = mission_guilds_of_barcelona
		required_missions = { shrakk_mosswall }
		position = 6
		
		provinces_to_highlight = { province_id = 4123 }
		
		trigger = {
			years_of_income = 3
			4123 = { development = 25 }
		}
		
		effect = {
			add_years_of_income = -3
			add_stability_or_adm_power = yes
			4123 = {
				change_province_name = "Shrakk'ktar"
				rename_capital = "Shrakk'ktar"
				add_province_modifier = {
					name = shrakkfort
					duration = -1
				}
				center_of_trade = 1
			}
		}
	}			
}

shrakk_two = {
	slot = 3
	generic = no
	ai = yes
	potential = {
		OR = {
			tag = J32
			tag = J48
		}
	}
	has_country_shield = yes
	
	shrakk_fortify_bog = {
		icon = mission_rajputana_frontier
		required_missions = { }
		position = 1
		
		trigger = {
			mil_power = 50
		}
		
		effect = {
			add_mil_power = -50
			capital_scope = {
				add_building_construction = {
					building = fort_15th
					speed = 2
					cost = 0
				}
			}
		}
	}
	
	shrakk_hole_in_wall = {
		icon = unify_piedmont
		required_missions = { shrakk_fortify_bog }
		position = 2
		
		provinces_to_highlight = {
			OR = {
				province_id = 4120
				province_id = 4121
			}
		}
		
		trigger = {
			OR = {
				has_discovered = 4120
				has_discovered = 4121
			}
		}
		
		effect = {
			add_prestige = 10
		}
	}
	
	shrakk_in_the_dark = {
		icon = alpine_fortifications
		required_missions = { shrakk_hole_in_wall }
		position = 3
		
		provinces_to_highlight = { province_id = 4119 }
		
		trigger = { has_discovered = 4119 }
		
		effect = {
			amldihr_area = {
				discover_country = ROOT
			}
		}
	}
	
	shrakk_para_bellum = {
		icon = prosper_in_piedmont
		required_missions = { shrakk_in_the_dark }
		position = 4
		
		trigger = {
			army_size_percentage = 1
		}
		
		effect = {
			country_event = {
				id = ogre.14
			}
			amldihr_area = {
				limit = {
					NOT = { is_core = ROOT }
					NOT = { owned_by = ROOT }
				}
				add_claim = ROOT
			}
		}
	}
	
	shrakk_the_rock = {
		icon = protect_against_austria
		required_missions = { shrakk_para_bellum }
		position = 5
		
		trigger = {
			is_at_war = yes
			OR = {
				4119 = {	#Amldihr
					owner = {
						OR = {
							defensive_war_with = ROOT
							offensive_war_with = ROOT
						}
					}
				}
				amldihr_area = {
					type = all
					owned_by = ROOT
				}
			}
		}
		
		effect = {
			add_country_modifier = {
				name = war_for_the_rock
				duration = 3650
			}
		}
	}
	
	shrakk_koth = {
		icon = mission_junnagadh_fort
		required_missions = { shrakk_the_rock }
		position = 6
		
		provinces_to_highlight = { area = amldihr_area }
		
		trigger = {
			amldihr_area = {
				type = all
				owned_by = ROOT
				is_core = ROOT
			}
		}
		
		effect = {
			add_prestige = 20
			add_legitimacy = 10
			add_country_modifier = {
				name = ogre_of_the_hill
				duration = 7300
			}
		}
	}
	
	shrakk_vrilbesh = {
		icon = mission_conquer_mewar
		required_missions = { 
			shrakk_koth
			shrakk_caste
			shrakk_shrakkfort
		}
		position = 7
		
		trigger = {
			has_institution = feudalism
			legitimacy = 100
			stability = 3
			adm_tech = 7
		}
		
		effect = {
			if = {
				limit = { exists = J48 }
				add_treasury = 100
			}
			else = {
				change_tag = J48
				hidden_effect = { restore_country_name = yes }
				swap_non_generic_missions = yes
				add_prestige = 25
				set_government_rank = 2
				change_government = monarchy
				add_government_reform = ogre_kingdom
			}
		}
	}
}

shrakk_three = {
	slot = 4
	generic = no
	ai = yes
	potential = {
		OR = {
			tag = J32
			tag = J48
		}
	}
	has_country_shield = yes
	
	shrakk_goblin_town = {
		icon = mission_crush_delhi
		required_missions = { }
		position = 1
		
		trigger = {
			adm_power = 100
			years_of_income = 1.5
		}
		
		effect = {
			add_adm_power = -100
			add_years_of_income = -1.5
			4123 = {
				add_base_tax = 3
				add_province_modifier = {
					name = gnoblar_town
					duration = -1
				}
			}
			small_increase_of_goblin_tolerance_effect = yes
		}
	}
	
	shrakk_pathfinders = {
		icon = mission_conquer_malwa_bah
		required_missions = { shrakk_goblin_town }
		position = 2
		
		trigger = {
			years_of_income = 1
			mil_power = 25
		}
		
		effect = {
			add_mil_power = -25
			add_years_of_income = -1
			define_conquistador = {
				name = "Dunkke Mouth Smasher"
				fire = 2
				shock = 5
				manuever = 5
				siege = 4
				trait = goal_oriented_personality
			}
			small_increase_of_goblin_tolerance_effect = yes
		}
	}
	
	shrakk_hills_have_eyes = {
		icon = mission_invade_burma
		required_missions = { shrakk_pathfinders }
		position = 3
		
		provinces_to_highlight = {
			OR = {
				province_id = 4143
				province_id = 4166
			}
		}
		
		trigger = {
			has_discovered = 4143
			has_discovered = 4166
		}
		
		effect = {
			add_prestige = 10
			serpents_vale_region = {
				limit = {
					NOT = { is_core = ROOT }
					NOT = { owned_by = ROOT }
				}
				add_permanent_claim = ROOT
			}
		}
	}
	
	shrakk_out_my_swamp = {
		icon = mission_industrialize_bengal
		required_missions = { shrakk_hills_have_eyes }
		position = 4
		
		provinces_to_highlight = { province_id = 4119 }
		
		trigger = {
			amldihr_area = {
				type = all
				owned_by = ROOT
				is_core = ROOT
				is_city = yes
			}
			4119 = {
				NOT = {
					OR = {
						has_province_modifier = damaged_hold
						has_province_modifier = partially_ruined_hold
						has_province_modifier = ruined_hold
						has_province_modifier = hold_being_restored
					}
				}
			}
		}
		
		effect = {
			add_country_modifier = {
				name = gnoblar_migration
				duration = 3650
			}
			add_accepted_culture = cave_goblin
			serpents_vale_region = {
				remove_province_modifier = goblin_minority_oppressed_small
				remove_province_modifier = goblin_minority_oppressed_large
				remove_province_modifier = goblin_minority_coexisting_small
				remove_province_modifier = goblin_minority_coexisting_large
				remove_province_modifier = goblin_minority_integrated_small
				remove_province_modifier = goblin_minority_integrated_large
			}
			4123 = {
				remove_province_modifier = gnoblar_town
			}
			4119 = {
				add_permanent_province_modifier = {
					name = gnoblar_hold
					duration = -1
				}
				change_culture = cave_goblin
				change_religion = goblinic_shamanism
			}
			4122 = {
				add_permanent_province_modifier = {
					name = gnoblar_hold
					duration = -1
				}
				change_culture = cave_goblin
				change_religion = goblinic_shamanism
			}
			4128 = {
				add_permanent_province_modifier = {
					name = gnoblar_hold
					duration = -1
				}
				change_culture = cave_goblin
				change_religion = goblinic_shamanism
			}
			4149 = {
				add_permanent_province_modifier = {
					name = gnoblar_hold
					duration = -1
				}
				change_culture = cave_goblin
				change_religion = goblinic_shamanism
			}
		}
	}
	
	shrakk_caste = {
		icon = mission_bankers_of_cambay
		required_missions = { shrakk_out_my_swamp }
		position = 6
		
		trigger = {
			NOT = {
				has_country_modifier = gnoblar_migration
			}
			adm_power = 150
		}
		
		effect = {
			add_stability_or_adm_power = yes
			add_adm_power = -150
			every_owned_province = {
				add_next_institution_embracement = 25
			}
		}
	}
}

vrilbesh_one = {
	slot = 1
	generic = no
	ai = yes
	potential = {
		OR = {
			tag = J48
		}
	}
	has_country_shield = yes
	
	shrakk_bitter_lake = {
		icon = mission_conquer_malwa_guj
		required_missions = { shrakk_vrilbesh }
		position = 8
		
		provinces_to_highlight = { province_id = 4182 }
		
		trigger = {
			owns_core_province = 4182
			4182 = {
				is_city = yes
			}
		}
		
		effect = {
			4182 = {
				add_province_modifier = {
					name = sashkras
					duration = 7300
				}
			}
		}
	}
	
	shrakk_new_shrakkfort = {
		icon = mission_conquer_lower_burma_ori
		required_missions = { shrakk_bitter_lake }
		position = 9
		
		provinces_to_highlight = { province_id = 4182 }
		
		trigger = {
			4182 = {
				development = 25
				has_tax_building_trigger = yes
				has_trade_building_trigger = yes
			}
		}
		
		effect = {
			4182 = {
				rename_capital = "Nykha Shrakk'ktar"
				add_center_of_trade_level = 1
				add_permanent_province_modifier = {
					name = new_shrakkfort
					duration = -1
				}
			}
		}
	}
}

vrilbesh_two = {
	slot = 2
	generic = no
	ai = yes
	potential = {
		OR = {
			tag = J48
		}
	}
	has_country_shield = yes
	
	shrakk_orcs = {
		icon = mission_growth_of_ahmedabad
		required_missions = { shrakk_vrilbesh }
		position = 8
		
		trigger = {
			num_of_owned_provinces_with = {
				value = 5
				OR = {
					has_province_modifier = orcish_minority_oppressed_small
					has_province_modifier = orcish_minority_oppressed_large
					has_province_modifier = orcish_minority_coexisting_small
					has_province_modifier = orcish_minority_coexisting_large
					has_province_modifier = orcish_minority_integrated_small
					has_province_modifier = orcish_minority_integrated_large
				}
			}
		}
		
		effect = {
			add_accepted_culture = black_orc
			add_country_modifier = {
				name = small_ogres
				duration = 7300
			}
			add_country_modifier = {
				name = integrating_orcs
				duration = 7300
			}
			medium_increase_of_orcish_tolerance_effect = yes
		}
	}
	
	shrakk_ogrillons = {
		icon = mission_subjugate_rajputana
		required_missions = { shrakk_orcs }
		position = 9
		
		trigger = {
			NOT = {
				has_country_modifier = integrating_orcs
			}
		}
		
		effect = {
			add_country_modifier = {
				name = ogrillons
				duration = -1
			}
			hidden_effect = { 1804 = { add_province_triggered_modifier = merc_ogrillons_free } }
			medium_increase_of_orcish_tolerance_effect = yes
		}
	}
	
	shrakk_loneguard = {
		icon = mission_italian_condottiere
		required_missions = {
			shrakk_new_shrakkfort
			shrakk_ogrillons
		}
		position = 10
		
		provinces_to_highlight = { area = lonely_mountains_area }
		
		trigger = {
			lonely_mountains_area = {
				type = all
				owned_by = ROOT
				is_core = ROOT
				is_city = yes
			}
		}
		
		effect = {
			every_owned_province = {
				remove_province_modifier = orcish_minority_oppressed_small
				remove_province_modifier = orcish_minority_oppressed_large
				remove_province_modifier = orcish_minority_coexisting_small
				remove_province_modifier = orcish_minority_coexisting_large
				remove_province_modifier = orcish_minority_integrated_small
				remove_province_modifier = orcish_minority_integrated_large
			}
			lonely_mountains_area = {
				add_permanent_province_modifier = {
					name = ogrillon_barracks
					duration = -1
				}
				change_culture = black_orc
			}
		}
	}
	
	shrakk_greywall = {
		icon = mission_into_africa
		required_missions = {
			shrakk_loneguard
			shrakk_flood_pass
		}
		position = 11
		
		provinces_to_highlight = { province_id = 4176 }
		
		trigger = {
			owns_core_province = 4176
			4176 = {
				has_fort_building_trigger = yes
			}
			years_of_income = 2
		}
		
		effect = {
			add_years_of_income = -2
			4176 = {
				add_permanent_province_modifier = {
					name = ogre_greywall
					duration = -1
				}
			}
		}
	}
}

vrilbesh_three = {
	slot = 3
	generic = no
	ai = yes
	potential = {
		OR = {
			tag = J48
		}
	}
	has_country_shield = yes
	
	shrakk_beyond_vale = {
		icon = mission_advance_to_the_dnieper
		required_missions = { shrakk_vrilbesh }
		position = 8
		
		provinces_to_highlight = {
			OR = {
				province_id = 4183
				province_id = 4192
				province_id = 4197
			}
		}
		
		trigger = {
			has_discovered = 4183
			has_discovered = 4192
			has_discovered = 4197
		}
		
		effect = {
			add_prestige = 15
			add_country_modifier = {
				name = beyond_the_vale
				duration = 14600
			}
		}
	}
	
	shrakk_cold_reception = {
		icon = mission_sovereign_principality
		required_missions = { shrakk_beyond_vale }
		position = 9
		
		trigger = {
			any_known_country = {
				capital_scope = {
					continent = europe
				}
			}
		}
		
		effect = {
			northern_pass_region = {
				limit = {
					NOT = { is_core = ROOT }
					NOT = { owned_by = ROOT }
				}
				add_claim = ROOT
			}
		}
	}
	
	shrakk_flood_pass = {
		icon = mission_rb_into_ireland
		required_missions = {
			shrakk_ogrillons
			shrakk_cold_reception
			shrakk_irrigation
		}
		position = 10
		
		trigger = {
			adm_tech = 15
			years_of_income = 5
			mil_power = 300
		}
		
		effect = {
			add_years_of_income = -5
			add_mil_power = -300
			add_prestige = 15
			northern_pass_region = {
				add_permanent_province_modifier = {
					name = flooded_pass
					duration = -1
				}
			}
		}
	}
	
	shrakk_legacy_of_shrakk = {
		icon = mission_patronize_local_gods
		required_missions = {
			shrakk_greywall
			shrakk_eastwark
		}
		position = 12
		
		provinces_to_highlight = { province_id = 4123 }
		
		trigger = {
			4123 = {
				development = 50
			}
			prestige = 50
			total_development = 1000
		}
		
		effect = {
			add_prestige = 25
			set_government_rank = 3
			change_government = monarchy
			add_government_reform = ogre_empire
			ROOT = { set_dynasty = "Chobeshogh" }
			define_heir = {
				name = "Shrakk"
				dynasty = "Chobeshogh"
				age = 0
				adm = 6
				dip = 6
				mil = 6
				claim = 100
				no_consort_with_heir = yes
			}
		}
	}
}

vrilbesh_four = {
	slot = 4
	generic = no
	ai = yes
	potential = {
		OR = {
			tag = J48
		}
	}
	has_country_shield = yes
	
	shrakk_great_order = {
		icon = mission_restore_kiev
		required_missions = { shrakk_vrilbesh }
		position = 8
		
		trigger = {
			adm_power = 150
			dip_power = 150
			accepted_culture = cave_goblin
			accepted_culture = black_orc
		}
		
		effect = {
			add_adm_power = -150
			add_dip_power = -150
			add_country_modifier = {
				name = great_order
				duration = -1
			}
			large_increase_of_orcish_tolerance_effect = yes
			large_increase_of_goblin_tolerance_effect = yes
		}
	}
	
	shrakk_irrigation = {
		icon = mission_reconquer_vologda
		required_missions = { shrakk_great_order }
		position = 9
		
		trigger = {
			num_of_owned_provinces_with = {
				value = 12
				region = serpents_vale_region
				NOT = {
					has_province_modifier = flooded_province
				}
			}
		}
		
		effect = {
			serpents_vale_region = {
				remove_province_triggered_modifier = swamp_stilts_1
			}
			add_country_modifier = {
				name = swamp_stilts_2
				duration = -1
			}
		}
	}
	
	shrakk_mossgate = {
		icon = mission_convert_bengal
		required_missions = {
			shrakk_irrigation
			shrakk_goboing
		}
		position = 10
		
		provinces_to_highlight = { province_id = 4166 }
		
		trigger = {
			4166 = {
				has_trade_building_trigger = yes
				development = 30
			}
		}
		
		effect = {
			4166 = {
				rename_capital = "Mikharbch"
				add_permanent_province_modifier = {
					name = mossgate
					duration = -1
				}
				center_of_trade = 2
			}
		}
	}
	
	shrakk_eastwark = {
		icon = mission_advance_to_kalyana
		required_missions = {
			shrakk_mossgate
			shrakk_flood_pass
		}
		position = 11
		
		provinces_to_highlight = {
			OR = {
				province_id = 4201
				province_id = 4198
			}
		}
		
		trigger = {
			years_of_income = 3
			owns_core_province = 4201
			owns_core_province = 4198
			OR = {
				4201 = {
					has_fort_building_trigger = yes
				}
				4198 = {
					has_fort_building_trigger = yes
				}
			}
		}
		
		effect = {
			add_years_of_income = -3
			4201 = {
				add_permanent_province_modifier = {
					name = ogre_eastwark
					duration = -1
				}
			}
			4198 = {
				add_permanent_province_modifier = {
					name = ogre_eastwark
					duration = -1
				}
			}
		}
	}
}

vrilbesh_five = {
	slot = 5
	generic = no
	ai = yes
	potential = {
		OR = {
			tag = J48
		}
	}
	has_country_shield = yes
	
	shrakk_dorfeering = {
		icon = mission_establish_the_prikazy
		required_missions = { shrakk_vrilbesh }
		position = 8
		
		trigger = {
			OR = {
				any_ally = {
					culture_group = dwarven
				}
				any_subject_country = {
					culture_group = dwarven
				}
				num_of_owned_provinces_with = {
					value = 1
					culture_group = dwarven
				}
			}
		}
		
		effect = {
			add_country_modifier = {
				name = dwarven_engineering
				duration = -1
			}
			change_innovativeness = 5
			medium_increase_of_dwarven_tolerance_effect = yes
		}
	}
	
	shrakk_goboing = {
		icon = mission_cannons_firing
		required_missions = { shrakk_dorfeering }
		position = 9
		
		trigger = {
			development_in_provinces = {
				value = 200
				culture = cave_goblin
			}
		}
		
		effect = {
			add_country_modifier = {
				name = goblin_ingenuity
				duration = -1
			}
			change_innovativeness = 10
		}
	}
}