namespace = blue_scarves

#Setup
country_event = {
	id = blue_scarves.1
	title = blue_scarves.1.t
	desc = blue_scarves.1.d
	picture = ANGRY_MOB_eventPicture
	
	hidden = yes
	is_triggered_only = yes
	
	trigger = {
		always = yes
	}
	
	immediate = {
		hidden_effect = {
			set_country_flag = bluescarves_debug_flag
		}
	}
	
	option = {
        name = blue_scarves.1.a
        ai_chance = { factor = 100 }
		hepintian_area = {
			add_core = Y05
		}
		bifenggang_area = {
			add_core = Y05
		}
		erluxi_area = {
			add_core = Y05
		}
		country_event = { id = blue_scarves.2 }
	}
}
	
#####DISASTER START#####
country_event = {
	id = blue_scarves.2
	title = blue_scarves.2.t
	desc = blue_scarves.2.d
	picture = CIVIL_WAR_eventPicture
	
	major = yes
	major_trigger = {
		tag = Y99
	}
	
	is_triggered_only = yes

	immediate = {
		hidden_effect = {
			release = Y05
			Y05 = {
				declare_war_with_cb = {
					who = ROOT
					casus_belli = cb_blue_scarf_rebellion
				}
			}
			Y05 = {
				capital_scope = { blue_scarves_army_large = yes }
				if = {
					limit = { ROOT = { has_country_flag = xia_bluescarves_belligerent } }
					random_owned_province = { blue_scarves_army_large = yes }
				}
				if = {
					limit = {
						ROOT = {
							NOT = {
								has_country_flag = xia_bluescarves_gracious
							}
						}
					}
					random_owned_province = { blue_scarves_army_mid = yes }
				}
				random_owned_province = { blue_scarves_army_mid = yes }
				random_owned_province = { blue_scarves_army_mid = yes }
				random_owned_province = { blue_scarves_army_local = yes }
				random_owned_province = { blue_scarves_army_local = yes }
				add_country_modifier = {
					name = xia_the_blue_scarves
					duration = 9125
				}
				add_country_modifier = {
					name = xia_tithe_7
					duration = -1
				}
				add_treasury = 5000
				add_manpower = 50
				define_ruler = {
					adm = 4
					dip = 6
					mil = 4
					age = 33
					claim = 100
					male = yes
					culture = river_yan
					religion = righteous_path
					name = "Shang"
					dynasty = "Shui"
				}
				add_ruler_personality = righteous_personality
				add_ruler_personality = inspiring_leader_personality
				add_ruler_personality = mage_personality
				define_ruler_to_general = {
					fire = 6
					shock = 8
					manuever = 4
					siege = 6
					trait = war_wizard_personality
				}
				define_general = {
					shock = 6
					fire = 4
					manuever = 4
					siege = 2
					trait = master_of_arms_personality
				}
				define_general = {
					shock = 3
					fire = 3
					manuever = 5
					siege = 5
					trait = siege_specialist
				}
				define_general = {
					shock = 4
					fire = 3
					manuever = 4
					siege = 1
				}
				change_government = republic
				add_government_reform = peasants_republic
				change_religion = righteous_path
			}
		}
	}
	
	option = {				#Fight the traitors
		name = blue_scarves.2.a
		ai_chance = { factor = 100 }
		custom_tooltip = blue_scarves_rebellion_tooltip
		add_country_modifier = {
			name = xia_pilgrimages_disrupted
			duration = -1
		}
		if = {
			limit = {
				development_in_provinces = {
					value = 500
					NOT = {
						OR = {
							superregion = yanshen_superregion
							region = xianjie_region
						}
					}
				}
			}
			country_event = { id = blue_scarves.4 days = 3 }
		}
	}
}

#####DISASTER END#####
country_event = {
	id = blue_scarves.3
	title = blue_scarves.3.t
	desc = blue_scarves.3.d
	picture = BAD_WITH_MONARCH_eventPicture
	
	hidden = yes
	
	is_triggered_only = yes
	
	immediate = {
		hidden_effect = {
			clr_country_flag = bluescarves_debug_flag
			set_country_flag = blue_scarves_happened
		}
	}
	
	option = {					#Blue Scarves Defeated
        name = blue_scarves.3.a
		ai_chance = { factor = 100 }
		trigger = { NOT = { exists = Y05 } }
		country_event = { id = blue_scarves.21 }
	}
	
	option = {					#Blue Scarves Beat You - No Fracture Version
        name = blue_scarves.3.b
		ai_chance = { factor = 100 }
		trigger = {
			exists = Y05
			NOT = {
				has_global_flag = yanchung_joined_blue_scarves
			}
		}
		country_event = { id = blue_scarves.22 }
	}
	option = {					#Blue Scarves Beat You - Fracture Version
        name = blue_scarves.3.c
		ai_chance = { factor = 100 }
		trigger = {
			exists = Y05
			has_global_flag = yanchung_joined_blue_scarves
		}
		country_event = { id = blue_scarves.23 }
	}
}

#Blue Scarves Lose
country_event = {
	id = blue_scarves.21
	title = blue_scarves.21.t
	desc = blue_scarves.21.d
	picture = BAD_WITH_MONARCH_eventPicture
	
	major = yes
	major_trigger = {
		tag = Y99
	}
	
	is_triggered_only = yes
	
	option = {					#Eradicate them
        name = blue_scarves.21.a
		ai_chance = { factor = 0 }
		remove_country_modifier = xia_pilgrimages_disrupted
		add_country_modifier = {
			name = xia_cracked_down
			duration = -1
		}
		hidden_effect = {
			every_owned_province = {
				if = {
					limit = { previous_owner = Y05 }
					add_core = ROOT
				}
			}
		}
	}
	
	option = {					#Make Concessions
        name = blue_scarves.21.b
		ai_chance = { factor = 100 }
		remove_country_modifier = xia_pilgrimages_disrupted
		add_country_modifier = {
			name = xia_made_concessions
			duration = -1
		}
		hidden_effect = {
			every_owned_province = {
				if = {
					limit = { previous_owner = Y05 }
					add_core = ROOT
				}
			}
		}
	}
}

#Blue Scarves Win - No Fracture
country_event = {
	id = blue_scarves.22
	title = blue_scarves.22.t
	desc = blue_scarves.22.d
	picture = BAD_WITH_MONARCH_eventPicture
	
	major = yes
	major_trigger = {
		tag = Y99
	}
	
	is_triggered_only = yes
	
	option = {
        name = blue_scarves.22.a
		ai_chance = { factor = 0 }
		add_country_modifier = {
			name = xia_righteousness_challenged
			duration = -1
		}
	}
}

#Blue Scarves Win - Fracture Version
country_event = {
	id = blue_scarves.23
	title = blue_scarves.23.t
	desc = blue_scarves.23.d
	picture = BAD_WITH_MONARCH_eventPicture
	
	major = yes
	major_trigger = {
		tag = Y99
	}
	
	is_triggered_only = yes
	
	option = {
        name = blue_scarves.23.a
		ai_chance = {
			factor = 100
			modifier = {
				factor = 0
				has_global_flag = jiangdu_joined_blue_scarves
			}
		}
		trigger = {
			has_global_flag	= yanchung_joined_blue_scarves
		}
		add_country_modifier = {
			name = xia_righteousness_challenged
			duration = -1
		}
		clr_global_flag = yanchung_joined_blue_scarves
		hidden_effect = {
			Y05 = { country_event = { id = blue_scarves.24 } }
		}
	}
	
	option = {
        name = blue_scarves.23.b
		ai_chance = {
			factor = 100
			modifier = {
				factor = 0
				has_global_flag = tianlou_joined_blue_scarves
			}
		}
		trigger = {
			has_global_flag	= jiangdu_joined_blue_scarves
		}
		add_country_modifier = {
			name = xia_righteousness_challenged
			duration = -1
		}
		clr_global_flag = yanchung_joined_blue_scarves
		clr_global_flag = jiangdu_joined_blue_scarves
		hidden_effect = {
			Y05 = { country_event = { id = blue_scarves.25 } }
		}
	}
	
	option = {
        name = blue_scarves.23.c
		ai_chance = {
			factor = 100
			modifier = {
				factor = 0
				has_global_flag = upper_cities_joined_blue_scarves
			}
		}
		trigger = {
			has_global_flag	= tianlou_joined_blue_scarves
		}
		add_country_modifier = {
			name = xia_righteousness_challenged
			duration = -1
		}
		clr_global_flag = yanchung_joined_blue_scarves
		clr_global_flag = jiangdu_joined_blue_scarves
		clr_global_flag = tianlou_joined_blue_scarves
		hidden_effect = {
			Y05 = { country_event = { id = blue_scarves.26 } }
		}
	}
	
	option = {
        name = blue_scarves.23.d
		ai_chance = { factor = 100 }
		trigger = {
			has_global_flag	= upper_cities_joined_blue_scarves
		}
		add_country_modifier = {
			name = xia_righteousness_challenged
			duration = -1
		}
		clr_global_flag = yanchung_joined_blue_scarves
		clr_global_flag = jiangdu_joined_blue_scarves
		clr_global_flag = tianlou_joined_blue_scarves
		clr_global_flag = upper_cities_joined_blue_scarves
		hidden_effect = {
			Y05 = { country_event = { id = blue_scarves.27 } }
		}
	}
}

#Yanchung Fracture
country_event = {
	id = blue_scarves.24
	title = blue_scarves.24.t
	desc = blue_scarves.24.d
	picture = BAD_WITH_MONARCH_eventPicture
	
	hidden = yes
	
	is_triggered_only = yes
	
	immediate = {
		hidden_effect = {
			banyan_area = {
				add_core = Y08
				cede_province = Y08
			}
			balrijin_area = {
				add_core = Y08
				cede_province = Y08
			}
			yanchung_area = {
				add_core = Y08
				cede_province = Y08
			}
			zhinmuc_area = {
				add_core = Y08
				cede_province = Y08
			}
		}
	}
	
	option = {
        name = blue_scarves.24.a
		ai_chance = { factor = 100 }
	}
}

#Yanchung + Jiangdu Fracture
country_event = {
	id = blue_scarves.25
	title = blue_scarves.25.t
	desc = blue_scarves.25.d
	picture = BAD_WITH_MONARCH_eventPicture
	
	hidden = yes
	
	is_triggered_only = yes
	
	immediate = {
		hidden_effect = {
			banyan_area = {
				add_core = Y08
				cede_province = Y08
			}
			balrijin_area = {
				add_core = Y08
				cede_province = Y08
			}
			yanchung_area = {
				add_core = Y08
				cede_province = Y08
			}
			zhinmuc_area = {
				add_core = Y08
				cede_province = Y08
			}
			jinjiang_area = {
				add_core = Y13
				cede_province = Y13
			}
			dapeibi_area = {
				add_core = Y13
				cede_province = Y13
			}
			maohain_area = {
				add_core = Y13
				cede_province = Y13
			}
			jianfengmu_area = {
				add_core = Y13
				cede_province = Y13
			}
		}
	}
	
	option = {
        name = blue_scarves.25.a
		ai_chance = { factor = 100 }
	}
}

#Yanchung + Jiangdu + Tianlou Fracture
country_event = {
	id = blue_scarves.26
	title = blue_scarves.26.t
	desc = blue_scarves.26.d
	picture = BAD_WITH_MONARCH_eventPicture
	
	hidden = yes
	
	is_triggered_only = yes
	
	immediate = {
		hidden_effect = {
			banyan_area = {
				add_core = Y08
				cede_province = Y08
			}
			balrijin_area = {
				add_core = Y08
				cede_province = Y08
			}
			yanchung_area = {
				add_core = Y08
				cede_province = Y08
			}
			zhinmuc_area = {
				add_core = Y08
				cede_province = Y08
			}
			jinjiang_area = {
				add_core = Y13
				cede_province = Y13
			}
			dapeibi_area = {
				add_core = Y13
				cede_province = Y13
			}
			maohain_area = {
				add_core = Y13
				cede_province = Y13
			}
			jianfengmu_area = {
				add_core = Y13
				cede_province = Y13
			}
			tianlou_area = {
				add_core = Y19
				cede_province = Y19
			}
			nanrenshi_area = {
				add_core = Y19
				cede_province = Y19
			}
			wonsomli_area = {
				add_core = Y19
				cede_province = Y19
			}
			tianfengri_area = {
				add_core = Y19
				cede_province = Y19
			}
		}
	}
	
	option = {
        name = blue_scarves.26.a
		ai_chance = { factor = 100 }
	}
}

#Yanchung + Jiangdu + Tianlou + Upper Cities Fracture
country_event = {
	id = blue_scarves.27
	title = blue_scarves.27.t
	desc = blue_scarves.27.d
	picture = BAD_WITH_MONARCH_eventPicture
	
	hidden = yes
	
	is_triggered_only = yes
	
	immediate = {
		hidden_effect = {
			banyan_area = {
				add_core = Y08
				cede_province = Y08
			}
			balrijin_area = {
				add_core = Y08
				cede_province = Y08
			}
			yanchung_area = {
				add_core = Y08
				cede_province = Y08
			}
			zhinmuc_area = {
				add_core = Y08
				cede_province = Y08
			}
			jinjiang_area = {
				add_core = Y13
				cede_province = Y13
			}
			dapeibi_area = {
				add_core = Y13
				cede_province = Y13
			}
			maohain_area = {
				add_core = Y13
				cede_province = Y13
			}
			jianfengmu_area = {
				add_core = Y13
				cede_province = Y13
			}
			tianlou_area = {
				add_core = Y19
				cede_province = Y19
			}
			nanrenshi_area = {
				add_core = Y19
				cede_province = Y19
			}
			wonsomli_area = {
				add_core = Y19
				cede_province = Y19
			}
			tianfengri_area = {
				add_core = Y19
				cede_province = Y19
			}
			tiantsai_area = {
				add_core = Y09
				cede_province = Y09
			}
			bianfang_area = {
				add_core = Y09
				cede_province = Y09
			}
			samazung_area = {
				add_core = Y09
				cede_province = Y09
			}
			zujiang_area = {
				add_core = Y09
				cede_province = Y09
			}
		}
	}
	
	option = {
        name = blue_scarves.27.a
		ai_chance = { factor = 100 }
	}
}

#Yanchung and Surrounds Join Rebellion
country_event = {
	id = blue_scarves.4
	title = blue_scarves.4.t
	desc = blue_scarves.4.d
	picture = REVOLUTION_eventPicture
	
	is_triggered_only = yes
	
	immediate = {
		hidden_effect = {
			set_global_flag = yanchung_joined_blue_scarves
			banyan_area = {
				add_core = Y05
				cede_province = Y05
			}
			balrijin_area = {
				add_core = Y05
				cede_province = Y05
			}
			yanchung_area = {
				add_core = Y05
				cede_province = Y05
			}
			zhinmuc_area = {
				add_core = Y05
				cede_province = Y05
			}
			Y05 = {
				4859 = { blue_scarves_army_large = yes }
				define_general = {
					shock = 3
					fire = 4
					manuever = 2
					siege = 2
				}
				add_treasury = 5000
				add_manpower = 15
			}
		}
	}

	option = {					#Damn that sucks
		name = blue_scarves.4.a
		ai_chance = { factor = 100 }
		custom_tooltip = blue_scarves_yanchung_tooltip
		if = {
			limit = {
				development_in_provinces = {
					value = 1000
					NOT = {
						OR = {
							superregion = yanshen_superregion
							region = xianjie_region
						}
					}
				}
			}
			country_event = { id = blue_scarves.6 days = 3 }
		}
	}
}

#Upper Cities Join Rebellion
country_event = {
	id = blue_scarves.5
	title = blue_scarves.5.t
	desc = blue_scarves.5.d
	picture = REVOLUTION_eventPicture
	
	is_triggered_only = yes
	
	immediate = {
		hidden_effect = {
			set_global_flag = upper_cities_joined_blue_scarves
			tiantsai_area = {
				add_core = Y05
				cede_province = Y05
			}
			bianfang_area = {
				add_core = Y05
				cede_province = Y05
			}
			samazung_area = {
				add_core = Y05
				cede_province = Y05
			}
			zujiang_area = {
				add_core = Y05
				cede_province = Y05
			}
			Y05 = {
				4826 = { blue_scarves_army_mid = yes }
				4842 = { blue_scarves_army_mid = yes }
				4846 = { blue_scarves_army_mid = yes }
				define_general = {
					shock = 2
					fire = 4
					manuever = 6
					siege = 3
				}
				define_general = {
					shock = 6
					fire = 3
					manuever = 2
					siege = 1
				}
				define_general = {
					shock = 5
					fire = 5
					manuever = 3
					siege = 4
				}
				add_treasury = 15000
				add_manpower = 45
			}
		}
	}

	option = {					#Damn that sucks
		name = blue_scarves.5.a
		ai_chance = { factor = 100 }
		custom_tooltip = blue_scarves_upper_cities_tooltip
	}
}

#Jiangdu and Surrounds Join Rebellion
country_event = {
	id = blue_scarves.6
	title = blue_scarves.6.t
	desc = blue_scarves.6.d
	picture = REVOLUTION_eventPicture
	
	is_triggered_only = yes
	
	immediate = {
		hidden_effect = {
			set_global_flag = jiangdu_joined_blue_scarves
			jinjiang_area = {
				add_core = Y05
				cede_province = Y05
			}
			dapeibi_area = {
				add_core = Y05
				cede_province = Y05
			}
			maohain_area = {
				add_core = Y05
				cede_province = Y05
			}
			jianfengmu_area = {
				add_core = Y05
				cede_province = Y05
			}
			Y05 = {
				4868 = { blue_scarves_army_large = yes }
				define_general = {
					shock = 5
					fire = 4
					manuever = 4
					siege = 3
				}
				add_treasury = 5000
				add_manpower = 15
			}
		}
	}

	option = {					#Damn that sucks
		name = blue_scarves.6.a
		ai_chance = { factor = 100 }
		custom_tooltip = blue_scarves_jiangdu_tooltip
		if = {
			limit = {
				development_in_provinces = {
					value = 1500
					NOT = {
						OR = {
							superregion = yanshen_superregion
							region = xianjie_region
						}
					}
				}
			}
			country_event = { id = blue_scarves.7 days = 3 }
		}
	}
}

#Tianlou and Surrounds Join Rebellion
country_event = {
	id = blue_scarves.7
	title = blue_scarves.7.t
	desc = blue_scarves.7.d
	picture = REVOLUTION_eventPicture
	
	is_triggered_only = yes
	
	immediate = {
		hidden_effect = {
			set_global_flag = tianlou_joined_blue_scarves
			tianlou_area = {
				add_core = Y05
				cede_province = Y05
			}
			nanrenshi_area = {
				add_core = Y05
				cede_province = Y05
			}
			wonsomli_area = {
				add_core = Y05
				cede_province = Y05
			}
			tianfengri_area = {
				add_core = Y05
				cede_province = Y05
			}
			Y05 = {
				4871 = { blue_scarves_army_large = yes }
				define_general = {
					shock = 10
					fire = 4
					manuever = 4
					siege = 6
					trait = war_wizard_personality
				}
				add_treasury = 5000
				add_manpower = 15
			}
		}
	}

	option = {					#Damn that sucks
		name = blue_scarves.7.a
		ai_chance = { factor = 100 }
		custom_tooltip = blue_scarves_tianlou_tooltip
		if = {
			limit = {
				development_in_provinces = {
					value = 2000
					NOT = {
						OR = {
							superregion = yanshen_superregion
							region = xianjie_region
						}
					}
				}
			}
			country_event = { id = blue_scarves.5 days = 3 }
		}
	}
}

#Monks speak out in support of the Blue Scarves
country_event = {
	id = blue_scarves.8
	title = blue_scarves.8.t
	desc = blue_scarves.8.d
	picture = STREET_SPEECH_eventPicture
	
	is_triggered_only = yes
	
	trigger = {
		NOT = {
			has_country_modifier = xia_monks_support_blue_scarves
		}
		war_with = Y05
	}
	
	option = {					#Damn that sucks
		name = blue_scarves.8.a
		add_country_modifier = {
			name = xia_monks_support_blue_scarves
			duration = 365
		}
	}
}

#Soldiers defect
country_event = {
	id = blue_scarves.9
	title = blue_scarves.9.t
	desc = blue_scarves.9.d
	picture = COUNTRY_COLLAPSE_eventPicture
	
	is_triggered_only = yes
	
	trigger = {
		war_with = Y05
	}
	
	option = {					#Damn that sucks
		name = blue_scarves.9.a
		add_manpower = -5
		Y05 = {
			add_manpower = 5
		}
	}
}

#Hero defects
country_event = {
	id = blue_scarves.10
	title = blue_scarves.10.t
	desc = blue_scarves.10.d
	picture = COUNTRY_COLLAPSE_eventPicture
	
	is_triggered_only = yes
	
	trigger = {
		NOT = {
			has_country_modifier = xia_heroes_defecting
		}
		war_with = Y05
	}
	
	option = {					#Damn that sucks - mage version
		name = blue_scarves.10.a
		trigger = {
			has_country_modifier = xia_patronizing_sages
		}
		add_country_modifier = {
			name = xia_heroes_defecting
			duration = 730
		}
		Y05 = {
			define_general = {
				shock = 9
				fire = 2
				manuever = 5
				siege = 4
				trait = war_wizard_personality
			}
		}
	}
	
	option = {					#Damn that sucks - adventurer version
		name = blue_scarves.10.a
		trigger = {
			has_country_modifier = xia_patronizing_wandering_warriors
		}
		add_country_modifier = {
			name = xia_heroes_defecting
			duration = 730
		}
		Y05 = {
			define_general = {
				shock = 6
				fire = 4
				manuever = 6
				siege = 2
				trait = master_of_arms_personality
			}
		}
	}
}

#Militia defects
country_event = {
	id = blue_scarves.11
	title = blue_scarves.11.t
	desc = blue_scarves.11.d
	picture = COUNTRY_COLLAPSE_eventPicture
	
	is_triggered_only = yes
	
	trigger = {
		war_with = Y05
	}
	
	option = {					#Damn that sucks
		name = blue_scarves.11.a
		add_manpower = -5
		Y05 = {
			random_owned_province =  { blue_scarves_army_large = yes }
		}
	}
}